{
	"info": {
		"_postman_id": "4b2c11ab-017f-47be-a29f-d1dfdc33e8a1",
		"name": "Star Wars modificado",
		"schema": "https://schema.getpostman.com/json/collection/v2.1.0/collection.json"
	},
	"item": [
		{
			"name": "Obtener películas",
			"request": {
				"method": "GET",
				"header": [],
				"url": {
					"raw": "https://swapi.dev/api/films/",
					"protocol": "https",
					"host": [
						"swapi",
						"dev"
					],
					"path": [
						"api",
						"films",
						""
					]
				}
			},
			"response": []
		},
		{
			"name": "Obtener película 1",
			"request": {
				"method": "GET",
				"header": [],
				"url": {
					"raw": "https://swapi.dev/api/films/1",
					"protocol": "https",
					"host": [
						"swapi",
						"dev"
					],
					"path": [
						"api",
						"films",
						"1"
					]
				}
			},
			"response": []
		},
		{
			"name": "Obtener planetas",
			"request": {
				"method": "GET",
				"header": [],
				"url": {
					"raw": "https://swapi.dev/api/planets/",
					"protocol": "https",
					"host": [
						"swapi",
						"dev"
					],
					"path": [
						"api",
						"planets",
						""
					]
				}
			},
			"response": []
		}
	]
}